0	1	C	eps
0	1	c	eps
0	2	D	eps
0	2	d	eps
1	3	C	eps
1	3	c	eps
1	6	eps	1
1	6	D	4
1	6	d	4
1	6	M	9
1	6	m	9
2	4	C	eps
2	4	c	eps
2	6	eps	5
3	6	eps	2
3	6	C	3
3	6	c	3
4	5	C	eps
4	5	c	eps
4	6	eps	6
5	6	eps	7
5	6	C	8
5	6	c	8
6
