0	1	X	eps
0	1	x	eps
0	2	L	eps
0	2	l	eps
1	3	X	eps
1	3	x	eps
1	6	eps	1
1	6	L	4
1	6	l	4
1	6	C	9
1	6	c	9
2	4	X	eps
2	4	x	eps
2	6	eps	5
3	6	eps	2
3	6	X	3
3	6	x	3
4	5	X	eps
4	5	x	eps
4	6	eps	6
5	6	eps	7
5	6	X	8
5	6	x	8
6
