0 1 i eps
0 1 I eps
1 10 eps 1
1 2 i eps
1 2 I eps
2 10 eps 2
2 3 i eps
2 3 I eps
3 10 eps 3
1 4 v eps
1 4 V eps
4 10 eps 4
0 5 v eps
0 5 V eps
5 10 eps 5
5 6 i eps
5 6 I eps
6 10 eps 6
6 7 i eps
6 7 I eps
7 10 eps 7
7 8 i eps
7 8 I eps
8 10 eps 8
1 9 x eps
1 9 X eps
9 10 eps 9
10
